{
  "extends": [
	"tslint-immutable"
  ],
  "rules": {
	"no-unsafe-any": true,
	"no-var-keyword": true,
	"no-unused-variable": true,
	"no-parameter-reassignment": true,
	"typedef": [
	  true,
	  "call-signature",
	  "arrow-call-signature",
	  "parameter",
	  "arrow-parameter",
	  "property-declaration",
	  "variable-declaration",
	  "member-variable-declaration"
	],
	"readonly-keyword": false,
	"readonly-array": false,
	"no-let": false,
	"no-array-mutation": true,
	"no-object-mutation": false,
	"no-this": false,
	"no-class": false,
	"no-mixed-interface": false,
	"no-expression-statement": false,
	"member-ordering": true,
	"no-any": false,
	"no-inferrable-types": [
	  false
	],
	"no-internal-module": true,
	"no-var-requires": false,
	"typedef-whitespace": [
	  true,
	  {
		"call-signature": "nospace",
		"index-signature": "nospace",
		"parameter": "nospace",
		"property-declaration": "nospace",
		"variable-declaration": "nospace"
	  }
	],
	"curly": true,
	"forin": false,
	"label-position": true,
	"no-arg": true,
	"no-bitwise": true,
	"no-conditional-assignment": true,
	"no-console": [
	  true,
	  "info",
	  "time",
	  "timeEnd",
	  "trace"
	],
	"no-construct": true,
	"no-debugger": true,
	"no-duplicate-variable": true,
	"no-empty": false,
	"no-eval": true,
	"strictPropertyInitialization": false,
	"no-null-keyword": true,
	"no-shadowed-variable": true,
	"no-string-literal": true,
	"no-switch-case-fall-through": true,
	"no-unused-expression": [
	  true,
	  "allow-fast-null-checks"
	],
	"no-use-before-declare": true,
	"radix": true,
	"switch-default": true,
	"triple-equals": true,
	"eofline": false,
	"indent": [
	  true,
	  "tabs",
	  4
	],
	"max-line-length": [
	  true,
	  120
	],
	"no-require-imports": true,
	"no-trailing-whitespace": true,
	"object-literal-sort-keys": false,
	"trailing-comma": [
	  true,
	  {
		"multiline": "never",
		"singleline": "never"
	  }
	],
	"align": [
	  true
	],
	"class-name": true,
	"comment-format": [
	  false
	],
	"interface-name": [
	  false
	],
	"jsdoc-format": true,
	"no-consecutive-blank-lines": [
	  true
	],
	"no-parameter-properties": false,
	"one-line": [
	  true,
	  "check-open-brace",
	  "check-catch",
	  "check-else",
	  "check-finally",
	  "check-whitespace"
	],
	"quotemark": [
	  true,
	  "single",
	  "avoid-escape"
	],
	"semicolon": [
	  true,
	  "always"
	],
	"variable-name": [
	  false,
	  "check-format",
	  "require-const-for-all-caps",
	  "ban-keywords"
	],
	"whitespace": [
	  true,
	  "check-branch",
	  "check-decl",
	  "check-operator",
	  "check-separator",
	  "check-rest-spread",
	  "check-type",
	  "check-typecast",
	  "check-type-operator"
	]
  }
}
